sandp-earnings
…
# A tibble: 81 × 6
   gdp[,1] sales[,1] margin[,1] pe[,1] eps[,1] spx[,1]
     <dbl>     <dbl>      <dbl>  <dbl>   <dbl>   <dbl>
 1  27234.     0.600      0.135   13.5    261.   3519.
 2  27234.     0.600      0.135   16.8    261.   4386.
 3  27234.     0.600      0.135   20.1    261.   5253.
 4  25330.     0.600      0.135   13.5    243.   3273.
 5  25330.     0.600      0.135   16.8    243.   4079.
 6  25330.     0.600      0.135   20.1    243.   4886.
 7  27234.     0.535      0.135   13.5    233.   3142.
 8  27234.     0.535      0.135   16.8    233.   3916.
 9  27234.     0.535      0.135   20.1    233.   4690.
10  27234.     0.600      0.117   13.5    225.   3036.
# … with 71 more rows
…
